{
  "organizations": {
    "metadata": {
      "version": 31,
      "www_path_prefix": "https://www.crunchbase.com",
      "api_path_prefix": "https://api.crunchbase.com",
      "image_path_prefix": "http://public.crunchbase.com/t_api_images/"
    },
    "data": {
      "paging": {
        "total_items": 254595,
        "number_of_pages": 2546,
        "current_page": 1,
        "sort_order": "created_at DESC",
        "items_per_page": 100,
        "next_page_url": "https://api.crunchbase.com/v3.1/organizations?page=2&sort_order=created_at%20DESC&items_per_page=100&locations=United%20States",
        "prev_page_url": null,
        "key_set_url": "https://api.crunchbase.com/v3.1/organizations?prev_at=1550556246&prev_uuid=2d363bbb2bf44b95b00be307103f25e9&sort_order=created_at%20DESC&items_per_page=100&locations=United%20States",
        "collection_url": "https://api.crunchbase.com/v3.1/organizations",
        "updated_since": null
      },
      "items": [
        {
          "type": "OrganizationSummary",
          "uuid": "75eb78de94b84bfaa8a16c7723a84ef8",
          "properties": {
            "permalink": "armada-aeronautics-inc",
            "api_path": "organizations/armada-aeronautics-inc",
            "web_path": "organization/armada-aeronautics-inc",
            "api_url": "https://api.crunchbase.com/v3.1/organizations/armada-aeronautics-inc",
            "name": "Armada Aeronautics Inc",
            "stock_exchange": null,
            "stock_symbol": null,
            "primary_role": "company",
            "short_description": "Air transportation company from Santa Clara funded by tier-1 VC.",
            "profile_image_url": "http://public.crunchbase.com/t_api_images/ibx7cb4g8ql4frnbfpox",
            "domain": null,
            "homepage_url": null,
            "facebook_url": null,
            "twitter_url": null,
            "linkedin_url": null,
            "city_name": "Santa Clara",
            "region_name": "California",
            "country_code": "United States",
            "created_at": 1550606068,
            "updated_at": 1550606068
          }
        },
        {
          "type": "OrganizationSummary",
          "uuid": "a1b3b5a19ee04843a63bee5112eb69b8",
          "properties": {
            "permalink": "acsera",
            "api_path": "organizations/acsera",
            "web_path": "organization/acsera",
            "api_url": "https://api.crunchbase.com/v3.1/organizations/acsera",
            "name": "Acsera",
            "stock_exchange": null,
            "stock_symbol": null,
            "primary_role": "company",
            "short_description": "Acsera provides a comprehensive, fully integrated monitoring and performance management.",
            "profile_image_url": null,
            "domain": "acsera.com/",
            "homepage_url": "https://www.acsera.com/",
            "facebook_url": null,
            "twitter_url": null,
            "linkedin_url": null,
            "city_name": "Sunnyvale",
            "region_name": "California",
            "country_code": "United States",
            "created_at": 1550560129,
            "updated_at": 1550560129
          }
        },
        {
          "type": "OrganizationSummary",
          "uuid": "cd18c4c1ed8f425cae084258778743a7",
          "properties": {
            "permalink": "commetrex",
            "api_path": "organizations/commetrex",
            "web_path": "organization/commetrex",
            "api_url": "https://api.crunchbase.com/v3.1/organizations/commetrex",
            "name": "Commetrex",
            "stock_exchange": null,
            "stock_symbol": null,
            "primary_role": "company",
            "short_description": "Commetrex is a developer of business-enabling technology components for the telecommunications system developer.",
            "profile_image_url": "http://public.crunchbase.com/t_api_images/t1kkbxrlmt9buj6gcg2r",
            "domain": "commetrex.com/",
            "homepage_url": "http://www.commetrex.com/",
            "facebook_url": null,
            "twitter_url": "https://twitter.com/commetrex",
            "linkedin_url": "https://www.linkedin.com/company/commetrex-corp./",
            "city_name": "Roswell",
            "region_name": "Georgia",
            "country_code": "United States",
            "created_at": 1550559678,
            "updated_at": 1550559678
          }
        },
        {
          "type": "OrganizationSummary",
          "uuid": "1dc00772ec4c4902a80ecac829a332a5",
          "properties": {
            "permalink": "clarus-agency",
            "api_path": "organizations/clarus-agency",
            "web_path": "organization/clarus-agency",
            "api_url": "https://api.crunchbase.com/v3.1/organizations/clarus-agency",
            "name": "Clarus Agency",
            "stock_exchange": null,
            "stock_symbol": null,
            "primary_role": "company",
            "short_description": "Clarus Agency is a Developer of custom mobile application for corporate clients.",
            "profile_image_url": "http://public.crunchbase.com/t_api_images/cu6hgk5t1jeqsdqityfe",
            "domain": "clarusagency.com/",
            "homepage_url": "http://www.clarusagency.com/",
            "facebook_url": "https://www.facebook.com/clarusagency/",
            "twitter_url": null,
            "linkedin_url": null,
            "city_name": "Austin",
            "region_name": "Texas",
            "country_code": "United States",
            "created_at": 1550559595,
            "updated_at": 1550559595
          }
        },
        {
          "type": "OrganizationSummary",
          "uuid": "f4897c06402a49eb86b98b0a7b5d9a5d",
          "properties": {
            "permalink": "comosoft",
            "api_path": "organizations/comosoft",
            "web_path": "organization/comosoft",
            "api_url": "https://api.crunchbase.com/v3.1/organizations/comosoft",
            "name": "Comosoft",
            "stock_exchange": null,
            "stock_symbol": null,
            "primary_role": "company",
            "short_description": "Comosoft is a",
            "profile_image_url": "http://public.crunchbase.com/t_api_images/uhhrnv9qb2vjnx0de1ka",
            "domain": "comosoft.com/",
            "homepage_url": "https://www.comosoft.com/",
            "facebook_url": "https://www.facebook.com/pg/comosoft/",
            "twitter_url": "https://twitter.com/comosoft",
            "linkedin_url": null,
            "city_name": "Frisco",
            "region_name": "Texas",
            "country_code": "United States",
            "created_at": 1550559571,
            "updated_at": 1550559571
          }
        },
        {
          "type": "OrganizationSummary",
          "uuid": "5a8693bbb8504bda8ad08d98618a1d99",
          "properties": {
            "permalink": "code-ninjas",
            "api_path": "organizations/code-ninjas",
            "web_path": "organization/code-ninjas",
            "api_url": "https://api.crunchbase.com/v3.1/organizations/code-ninjas",
            "name": "Code Ninjas",
            "stock_exchange": null,
            "stock_symbol": null,
            "primary_role": "company",
            "short_description": "Code Ninjas is a fun & inviting place where kids ages 7-14 learn to code by building video games.",
            "profile_image_url": "http://public.crunchbase.com/t_api_images/b9jn1gxcx1o5ziweazsr",
            "domain": "codeninjas.com/",
            "homepage_url": "https://www.codeninjas.com/",
            "facebook_url": "https://www.facebook.com/CodeNinjas/",
            "twitter_url": "https://twitter.com/codeninjashq",
            "linkedin_url": "https://www.linkedin.com/company/code-ninjas-llc/",
            "city_name": "Pearland",
            "region_name": "Texas",
            "country_code": "United States",
            "created_at": 1550559526,
            "updated_at": 1550559861
          }
        },
        {
          "type": "OrganizationSummary",
          "uuid": "c2995c23369449049a7cb825ad21be73",
          "properties": {
            "permalink": "cognitive-code",
            "api_path": "organizations/cognitive-code",
            "web_path": "organization/cognitive-code",
            "api_url": "https://api.crunchbase.com/v3.1/organizations/cognitive-code",
            "name": "Cognitive Code",
            "stock_exchange": null,
            "stock_symbol": null,
            "primary_role": "company",
            "short_description": "Developer of practical conversational artificial intelligence systems.",
            "profile_image_url": null,
            "domain": "cognitivecode.com/",
            "homepage_url": "http://www.cognitivecode.com/",
            "facebook_url": null,
            "twitter_url": null,
            "linkedin_url": null,
            "city_name": "Anaheim",
            "region_name": "California",
            "country_code": "United States",
            "created_at": 1550559476,
            "updated_at": 1550559476
          }
        },
        {
          "type": "OrganizationSummary",
          "uuid": "144c3fac39d84f7e80c1bab3c7aa4154",
          "properties": {
            "permalink": "class-com",
            "api_path": "organizations/class-com",
            "web_path": "organization/class-com",
            "api_url": "https://api.crunchbase.com/v3.1/organizations/class-com",
            "name": "Class.com",
            "stock_exchange": null,
            "stock_symbol": null,
            "primary_role": "company",
            "short_description": "Class.com is a Provider of online learning solutions.",
            "profile_image_url": "http://public.crunchbase.com/t_api_images/xymnjjrbezbulqdyu7t4",
            "domain": "class.com/",
            "homepage_url": "https://class.com/",
            "facebook_url": "https://www.facebook.com/classmagazine",
            "twitter_url": "https://twitter.com/classmgzn",
            "linkedin_url": null,
            "city_name": "Lincoln",
            "region_name": "Nebraska",
            "country_code": "United States",
            "created_at": 1550559392,
            "updated_at": 1550559392
          }
        },
        {
          "type": "OrganizationSummary",
          "uuid": "b167bdeb732e46b59ca51e140e94d3ba",
          "properties": {
            "permalink": "claritymatters-f-k-a-solutions-builders",
            "api_path": "organizations/claritymatters-f-k-a-solutions-builders",
            "web_path": "organization/claritymatters-f-k-a-solutions-builders",
            "api_url": "https://api.crunchbase.com/v3.1/organizations/claritymatters-f-k-a-solutions-builders",
            "name": "ClarityMatters (f.k.a. Solutions Builders)",
            "stock_exchange": null,
            "stock_symbol": null,
            "primary_role": "company",
            "short_description": "ClarityMatters is a Provider of workforce analytics systems and consulting services designed to uncover valuable data.",
            "profile_image_url": null,
            "domain": "clairtymatters.com/",
            "homepage_url": "http://www.clairtymatters.com/",
            "facebook_url": null,
            "twitter_url": null,
            "linkedin_url": null,
            "city_name": "Atlanta",
            "region_name": "Georgia",
            "country_code": "United States",
            "created_at": 1550559260,
            "updated_at": 1550559260
          }
        },
        {
          "type": "OrganizationSummary",
          "uuid": "e05d16e0e226445d8a21de31a8fab347",
          "properties": {
            "permalink": "cloudigy",
            "api_path": "organizations/cloudigy",
            "web_path": "organization/cloudigy",
            "api_url": "https://api.crunchbase.com/v3.1/organizations/cloudigy",
            "name": "Cloudigy",
            "stock_exchange": null,
            "stock_symbol": null,
            "primary_role": "company",
            "short_description": "Cloudigy is a provider of a behavioral insight platform.",
            "profile_image_url": "http://public.crunchbase.com/t_api_images/xul4wvenfrwpma6yui6p",
            "domain": "cloudigy.com/",
            "homepage_url": "http://www.cloudigy.com/",
            "facebook_url": null,
            "twitter_url": "https://twitter.com/cloudigy",
            "linkedin_url": null,
            "city_name": "Atlanta",
            "region_name": "Georgia",
            "country_code": "United States",
            "created_at": 1550556322,
            "updated_at": 1550556322
          }
        },
        {
          "type": "OrganizationSummary",
          "uuid": "feef9bd44e9d443a85d69a1d3ecedf32",
          "properties": {
            "permalink": "cncdata",
            "api_path": "organizations/cncdata",
            "web_path": "organization/cncdata",
            "api_url": "https://api.crunchbase.com/v3.1/organizations/cncdata",
            "name": "CNCData",
            "stock_exchange": null,
            "stock_symbol": null,
            "primary_role": "company",
            "short_description": "CNCData is the primary source of market intelligence focused on identifying business opportunities.",
            "profile_image_url": null,
            "domain": "cncdata.com/www/",
            "homepage_url": "http://cncdata.com/www/",
            "facebook_url": null,
            "twitter_url": null,
            "linkedin_url": "https://www.linkedin.com/company/cnc-data-ltd/",
            "city_name": "Carlsbad",
            "region_name": "California",
            "country_code": "United States",
            "created_at": 1550556321,
            "updated_at": 1550556321
          }
        },
        {
          "type": "OrganizationSummary",
          "uuid": "9fa10746738a42639a153c4d8cd49f38",
          "properties": {
            "permalink": "claimfound",
            "api_path": "organizations/claimfound",
            "web_path": "organization/claimfound",
            "api_url": "https://api.crunchbase.com/v3.1/organizations/claimfound",
            "name": "ClaimFound",
            "stock_exchange": null,
            "stock_symbol": null,
            "primary_role": "company",
            "short_description": "ClaimFound makes software to automate financial processes and link people with opportunities .",
            "profile_image_url": "http://public.crunchbase.com/t_api_images/l55krxjnzzihh0wx5fkk",
            "domain": "claimfound.com/",
            "homepage_url": "https://claimfound.com/",
            "facebook_url": null,
            "twitter_url": "https://twitter.com/claimfound",
            "linkedin_url": null,
            "city_name": "Gainesville",
            "region_name": "Florida",
            "country_code": "United States",
            "created_at": 1550556259,
            "updated_at": 1550556303
          }
        },
        {
          "type": "OrganizationSummary",
          "uuid": "2d363bbb2bf44b95b00be307103f25e9",
          "properties": {
            "permalink": "citygate-gis",
            "api_path": "organizations/citygate-gis",
            "web_path": "organization/citygate-gis",
            "api_url": "https://api.crunchbase.com/v3.1/organizations/citygate-gis",
            "name": "Citygate GIS",
            "stock_exchange": null,
            "stock_symbol": null,
            "primary_role": "company",
            "short_description": "Citygate GIS has been providing information technology solutions.",
            "profile_image_url": "http://public.crunchbase.com/t_api_images/usisaifclto5zetleyx8",
            "domain": "citygategis.com/",
            "homepage_url": "http://www.citygategis.com/",
            "facebook_url": "https://www.facebook.com/citygategis",
            "twitter_url": "https://twitter.com/CitygateGIS",
            "linkedin_url": "https://www.linkedin.com/company/citygate-gis/",
            "city_name": "Annapolis",
            "region_name": "Maryland",
            "country_code": "United States",
            "created_at": 1550556246,
            "updated_at": 1550556246
          }
        }
      ]
    }
  }
}
